Relogio/simulation/qsim/Relogio.msim.vcd
$comment
	File created using the following command:
		vcd file Relogio.msim.vcd -direction
$end
$date
	Thu Sep 28 21:11:07 2017
$end
$version
	ModelSim Version 10.5b
$end
$timescale
	1ps
$end

$scope module relogio_vhd_vec_tst $end
$var wire 1 ! clk $end
$var wire 1 " minutos [7] $end
$var wire 1 # minutos [6] $end
$var wire 1 $ minutos [5] $end
$var wire 1 % minutos [4] $end
$var wire 1 & minutos [3] $end
$var wire 1 ' minutos [2] $end
$var wire 1 ( minutos [1] $end
$var wire 1 ) minutos [0] $end
$var wire 1 * segundos [7] $end
$var wire 1 + segundos [6] $end
$var wire 1 , segundos [5] $end
$var wire 1 - segundos [4] $end
$var wire 1 . segundos [3] $end
$var wire 1 / segundos [2] $end
$var wire 1 0 segundos [1] $end
$var wire 1 1 segundos [0] $end

$scope module i1 $end
$var wire 1 2 gnd $end
$var wire 1 3 vcc $end
$var wire 1 4 unknown $end
$var wire 1 5 devoe $end
$var wire 1 6 devclrn $end
$var wire 1 7 devpor $end
$var wire 1 8 ww_devoe $end
$var wire 1 9 ww_devclrn $end
$var wire 1 : ww_devpor $end
$var wire 1 ; ww_clk $end
$var wire 1 < ww_segundos [7] $end
$var wire 1 = ww_segundos [6] $end
$var wire 1 > ww_segundos [5] $end
$var wire 1 ? ww_segundos [4] $end
$var wire 1 @ ww_segundos [3] $end
$var wire 1 A ww_segundos [2] $end
$var wire 1 B ww_segundos [1] $end
$var wire 1 C ww_segundos [0] $end
$var wire 1 D ww_minutos [7] $end
$var wire 1 E ww_minutos [6] $end
$var wire 1 F ww_minutos [5] $end
$var wire 1 G ww_minutos [4] $end
$var wire 1 H ww_minutos [3] $end
$var wire 1 I ww_minutos [2] $end
$var wire 1 J ww_minutos [1] $end
$var wire 1 K ww_minutos [0] $end
$var wire 1 L \~QUARTUS_CREATED_GND~I_combout\ $end
$var wire 1 M \clk~input_o\ $end
$var wire 1 N \clk~inputCLKENA0_outclk\ $end
$var wire 1 O \regS|DOUT[3]~DUPLICATE_q\ $end
$var wire 1 P \ULA|Add0~2\ $end
$var wire 1 Q \ULA|Add0~5_sumout\ $end
$var wire 1 R \ULA|Add0~6\ $end
$var wire 1 S \ULA|Add0~9_sumout\ $end
$var wire 1 T \regS|DOUT[2]~DUPLICATE_q\ $end
$var wire 1 U \ULA|Add0~10\ $end
$var wire 1 V \ULA|Add0~13_sumout\ $end
$var wire 1 W \regS|DOUT[3]~feeder_combout\ $end
$var wire 1 X \regS|DOUT[1]~DUPLICATE_q\ $end
$var wire 1 Y \COMP|Add1~26_cout\ $end
$var wire 1 Z \COMP|Add1~22\ $end
$var wire 1 [ \COMP|Add1~17_sumout\ $end
$var wire 1 \ \ULA|Add0~14\ $end
$var wire 1 ] \ULA|Add0~17_sumout\ $end
$var wire 1 ^ \regS|DOUT[4]~feeder_combout\ $end
$var wire 1 _ \regS|DOUT[4]~DUPLICATE_q\ $end
$var wire 1 ` \COMP|Add1~18\ $end
$var wire 1 a \COMP|Add1~13_sumout\ $end
$var wire 1 b \ULA|Add0~18\ $end
$var wire 1 c \ULA|Add0~21_sumout\ $end
$var wire 1 d \ULA|Add0~22\ $end
$var wire 1 e \ULA|Add0~25_sumout\ $end
$var wire 1 f \COMP|Add1~14\ $end
$var wire 1 g \COMP|Add1~10\ $end
$var wire 1 h \COMP|Add1~5_sumout\ $end
$var wire 1 i \ULA|Add0~26\ $end
$var wire 1 j \ULA|Add0~29_sumout\ $end
$var wire 1 k \COMP|Add1~6\ $end
$var wire 1 l \COMP|Add1~1_sumout\ $end
$var wire 1 m \COMP|Add1~9_sumout\ $end
$var wire 1 n \COMP|Add1~21_sumout\ $end
$var wire 1 o \MUX_60_S|Equal0~0_combout\ $end
$var wire 1 p \MUX_60_S|Equal0~1_combout\ $end
$var wire 1 q \ULA|Add0~1_sumout\ $end
$var wire 1 r \ULA_M|Add0~2\ $end
$var wire 1 s \ULA_M|Add0~5_sumout\ $end
$var wire 1 t \ULA_M|Add0~6\ $end
$var wire 1 u \ULA_M|Add0~9_sumout\ $end
$var wire 1 v \ULA_M|Add0~10\ $end
$var wire 1 w \ULA_M|Add0~13_sumout\ $end
$var wire 1 x \ULA_M|Add0~14\ $end
$var wire 1 y \ULA_M|Add0~17_sumout\ $end
$var wire 1 z \ULA_M|Add0~18\ $end
$var wire 1 { \ULA_M|Add0~21_sumout\ $end
$var wire 1 | \ULA_M|Add0~22\ $end
$var wire 1 } \ULA_M|Add0~25_sumout\ $end
$var wire 1 ~ \COMP_M|Add1~18\ $end
$var wire 1 !! \COMP_M|Add1~22\ $end
$var wire 1 "! \COMP_M|Add1~2\ $end
$var wire 1 #! \COMP_M|Add1~6\ $end
$var wire 1 $! \COMP_M|Add1~9_sumout\ $end
$var wire 1 %! \COMP_M|Add1~5_sumout\ $end
$var wire 1 &! \COMP_M|Add1~1_sumout\ $end
$var wire 1 '! \ULA_M|Add0~26\ $end
$var wire 1 (! \ULA_M|Add0~29_sumout\ $end
$var wire 1 )! \COMP_M|Add1~10\ $end
$var wire 1 *! \COMP_M|Add1~13_sumout\ $end
$var wire 1 +! \COMP_M|Add1~17_sumout\ $end
$var wire 1 ,! \COMP_M|Add1~21_sumout\ $end
$var wire 1 -! \MUX_0_M|Equal0~0_combout\ $end
$var wire 1 .! \MUX_0_M|Equal0~1_combout\ $end
$var wire 1 /! \ULA_M|Add0~1_sumout\ $end
$var wire 1 0! \regS|DOUT\ [7] $end
$var wire 1 1! \regS|DOUT\ [6] $end
$var wire 1 2! \regS|DOUT\ [5] $end
$var wire 1 3! \regS|DOUT\ [4] $end
$var wire 1 4! \regS|DOUT\ [3] $end
$var wire 1 5! \regS|DOUT\ [2] $end
$var wire 1 6! \regS|DOUT\ [1] $end
$var wire 1 7! \regS|DOUT\ [0] $end
$var wire 1 8! \REG_M|DOUT\ [7] $end
$var wire 1 9! \REG_M|DOUT\ [6] $end
$var wire 1 :! \REG_M|DOUT\ [5] $end
$var wire 1 ;! \REG_M|DOUT\ [4] $end
$var wire 1 <! \REG_M|DOUT\ [3] $end
$var wire 1 =! \REG_M|DOUT\ [2] $end
$var wire 1 >! \REG_M|DOUT\ [1] $end
$var wire 1 ?! \REG_M|DOUT\ [0] $end
$var wire 1 @! \regS|ALT_INV_DOUT[4]~DUPLICATE_q\ $end
$var wire 1 A! \regS|ALT_INV_DOUT[3]~DUPLICATE_q\ $end
$var wire 1 B! \regS|ALT_INV_DOUT[2]~DUPLICATE_q\ $end
$var wire 1 C! \regS|ALT_INV_DOUT[1]~DUPLICATE_q\ $end
$var wire 1 D! \MUX_0_M|ALT_INV_Equal0~0_combout\ $end
$var wire 1 E! \MUX_60_S|ALT_INV_Equal0~1_combout\ $end
$var wire 1 F! \MUX_60_S|ALT_INV_Equal0~0_combout\ $end
$var wire 1 G! \COMP_M|ALT_INV_Add1~21_sumout\ $end
$var wire 1 H! \COMP_M|ALT_INV_Add1~17_sumout\ $end
$var wire 1 I! \COMP_M|ALT_INV_Add1~13_sumout\ $end
$var wire 1 J! \COMP_M|ALT_INV_Add1~9_sumout\ $end
$var wire 1 K! \COMP_M|ALT_INV_Add1~5_sumout\ $end
$var wire 1 L! \COMP_M|ALT_INV_Add1~1_sumout\ $end
$var wire 1 M! \REG_M|ALT_INV_DOUT\ [7] $end
$var wire 1 N! \REG_M|ALT_INV_DOUT\ [6] $end
$var wire 1 O! \REG_M|ALT_INV_DOUT\ [5] $end
$var wire 1 P! \REG_M|ALT_INV_DOUT\ [4] $end
$var wire 1 Q! \REG_M|ALT_INV_DOUT\ [3] $end
$var wire 1 R! \REG_M|ALT_INV_DOUT\ [2] $end
$var wire 1 S! \REG_M|ALT_INV_DOUT\ [1] $end
$var wire 1 T! \REG_M|ALT_INV_DOUT\ [0] $end
$var wire 1 U! \COMP|ALT_INV_Add1~21_sumout\ $end
$var wire 1 V! \COMP|ALT_INV_Add1~17_sumout\ $end
$var wire 1 W! \COMP|ALT_INV_Add1~13_sumout\ $end
$var wire 1 X! \COMP|ALT_INV_Add1~9_sumout\ $end
$var wire 1 Y! \COMP|ALT_INV_Add1~5_sumout\ $end
$var wire 1 Z! \COMP|ALT_INV_Add1~1_sumout\ $end
$var wire 1 [! \regS|ALT_INV_DOUT\ [7] $end
$var wire 1 \! \regS|ALT_INV_DOUT\ [6] $end
$var wire 1 ]! \regS|ALT_INV_DOUT\ [5] $end
$var wire 1 ^! \regS|ALT_INV_DOUT\ [4] $end
$var wire 1 _! \regS|ALT_INV_DOUT\ [3] $end
$var wire 1 `! \regS|ALT_INV_DOUT\ [2] $end
$var wire 1 a! \regS|ALT_INV_DOUT\ [1] $end
$var wire 1 b! \regS|ALT_INV_DOUT\ [0] $end
$var wire 1 c! \ULA|ALT_INV_Add0~17_sumout\ $end
$var wire 1 d! \ULA|ALT_INV_Add0~13_sumout\ $end
$upscope $end
$upscope $end
$enddefinitions $end
#0
$dumpvars
0!
02
13
x4
15
16
17
18
19
1:
0;
xL
0M
0N
0O
0P
0Q
0R
0S
0T
0U
0V
0W
0X
0Y
0Z
1[
0\
0]
0^
0_
0`
1a
0b
0c
0d
0e
0f
0g
1h
0i
0j
0k
1l
1m
1n
0o
0p
1q
0r
0s
0t
0u
0v
0w
0x
0y
0z
0{
0|
0}
0~
0!!
0"!
0#!
1$!
1%!
1&!
0'!
0(!
0)!
1*!
0+!
1,!
0-!
0.!
0/!
1@!
1A!
1B!
1C!
1D!
1E!
1F!
0G!
1H!
0I!
0J!
0K!
0L!
0U!
0V!
0W!
0X!
0Y!
0Z!
1c!
1d!
0<
0=
0>
0?
0@
0A
0B
1C
0D
0E
0F
0G
0H
0I
0J
0K
00!
01!
02!
03!
04!
05!
06!
07!
08!
09!
0:!
0;!
0<!
0=!
0>!
0?!
1M!
1N!
1O!
1P!
1Q!
1R!
1S!
1T!
1[!
1\!
1]!
1^!
1_!
1`!
1a!
1b!
0"
0#
0$
0%
0&
0'
0(
0)
0*
0+
0,
0-
0.
0/
00
11
$end
#10000
1!
1;
1M
1N
17!
0b!
0q
1P
1Q
0C
01
1B
10
#20000
0!
0;
0M
0N
#30000
1!
1;
1M
1N
16!
1X
07!
1b!
0C!
0a!
0Q
1R
1Y
1q
0P
1Q
0R
0n
1Z
1S
1U!
0[
1`
0S
1C
0B
1o
1V!
0a
1f
0F!
11
00
1A
1B
1W!
0m
1g
10
1/
0A
1X!
0h
1k
0/
1Y!
0l
1Z!
1p
0E!
1/!
1K
1)
#40000
0!
0;
0M
0N
#50000
1!
1;
1M
1N
06!
0X
1?!
0T!
1C!
1a!
0Q
0Y
0o
0/!
1r
1F!
1s
1n
0Z
0p
0U!
1[
0`
1E!
0K
0B
0V!
1/!
0r
1a
0f
0)
00
1J
0W!
1m
0g
0s
1(
0X!
1h
0k
1K
0Y!
1l
1)
0J
0Z!
0(
#60000
0!
0;
0M
0N
#70000
1!
1;
1M
1N
17!
0b!
0q
1P
1Q
0C
01
1B
10
#80000
0!
0;
0M
0N
#90000
1!
1;
1M
1N
16!
1X
07!
1b!
0C!
0a!
0Q
1R
1Y
1q
0P
1Q
0R
0n
1Z
1S
1U!
0[
1`
0S
1C
0B
1o
1V!
0a
1f
0F!
11
00
1A
1B
1W!
0m
1g
10
1/
0A
1X!
0h
1k
0/
1Y!
0l
1Z!
1p
0E!
0/!
1r
1s
0K
0)
1J
1(
#100000
0!
0;
0M
0N
#110000
1!
1;
1M
1N
06!
0X
1>!
0?!
1T!
0S!
1C!
1a!
0Q
0Y
0o
0s
1t
1+!
1/!
0r
0H!
1F!
1s
0t
1u
1n
0Z
0p
0U!
1[
0`
0u
1E!
1K
0J
0B
0V!
0/!
1a
0f
1)
0(
00
1I
1J
0W!
1m
0g
1(
1'
0I
0X!
1h
0k
0'
0K
0Y!
1l
0)
0Z!
#120000
0!
0;
0M
0N
#130000
1!
1;
1M
1N
17!
0b!
0q
1P
1Q
0C
01
1B
10
#140000
0!
0;
0M
0N
#150000
1!
1;
1M
1N
16!
1X
07!
1b!
0C!
0a!
0Q
1R
1Y
1q
0P
1Q
0R
0n
1Z
1S
1U!
0[
1`
0S
1C
0B
1o
1V!
0a
1f
0F!
11
00
1A
1B
1W!
0m
1g
10
1/
0A
1X!
0h
1k
0/
1Y!
0l
1Z!
1p
0E!
1/!
1K
1)
#160000
0!
0;
0M
0N
#170000
1!
1;
1M
1N
06!
0X
1?!
0T!
1C!
1a!
0Q
0Y
0o
0/!
1r
1F!
0s
1t
1n
0Z
0p
0U!
1[
0`
1u
1E!
0K
0B
0V!
1/!
0r
1a
0f
0)
00
0J
0W!
1m
0g
1s
0t
0(
1I
0X!
0u
1h
0k
1'
1K
0Y!
1l
1)
1J
0Z!
1(
0I
0'
#180000
0!
0;
0M
0N
#190000
1!
1;
1M
1N
17!
0b!
0q
1P
1Q
0C
01
1B
10
#200000
0!
0;
0M
0N
#210000
1!
1;
1M
1N
16!
1X
07!
1b!
0C!
0a!
0Q
1R
1Y
1q
0P
1Q
0R
0n
1Z
1S
1U!
0[
1`
0S
1C
0B
1o
1V!
0a
1f
0F!
11
00
1A
1B
1W!
0m
1g
10
1/
0A
1X!
0h
1k
0/
1Y!
0l
1Z!
1p
0E!
0/!
1r
0s
1t
1u
0K
0)
0J
0(
1I
1'
#220000
0!
0;
0M
0N
#230000
1!
1;
1M
1N
06!
0X
0>!
1=!
0?!
1T!
0R!
1S!
1C!
1a!
0Q
0Y
0o
1s
0t
0u
1v
1/!
0r
1F!
0s
1w
1u
0v
1n
0Z
0p
0U!
1[
0`
0w
1E!
1K
0I
1J
0B
0V!
0/!
1a
0f
1)
1(
0'
00
1I
1H
0J
0W!
1m
0g
0(
1'
1&
0H
0X!
1h
0k
0&
0K
0Y!
1l
0)
0Z!
#240000
0!
0;
0M
0N
#250000
1!
1;
1M
1N
17!
0b!
0q
1P
1Q
0C
01
1B
10
#260000
0!
0;
0M
0N
#270000
1!
1;
1M
1N
16!
1X
07!
1b!
0C!
0a!
0Q
1R
1Y
1q
0P
1Q
0R
0n
1Z
1S
1U!
0[
1`
0S
1C
0B
1o
1V!
0a
1f
0F!
11
00
1A
1B
1W!
0m
1g
10
1/
0A
1X!
0h
1k
0/
1Y!
0l
1Z!
1p
0E!
1/!
1K
1)
#280000
0!
0;
0M
0N
#290000
1!
1;
1M
1N
06!
0X
1?!
0T!
1C!
1a!
0Q
0Y
0o
0/!
1r
1F!
1s
1n
0Z
0p
0U!
1[
0`
1E!
0K
0B
0V!
1/!
0r
1a
0f
0)
00
1J
0W!
1m
0g
0s
1(
0X!
1h
0k
1K
0Y!
1l
1)
0J
0Z!
0(
#300000
0!
0;
0M
0N
#310000
1!
1;
1M
1N
17!
0b!
0q
1P
1Q
0C
01
1B
10
#320000
0!
0;
0M
0N
#330000
1!
1;
1M
1N
16!
1X
07!
1b!
0C!
0a!
0Q
1R
1Y
1q
0P
1Q
0R
0n
1Z
1S
1U!
0[
1`
0S
1C
0B
1o
1V!
0a
1f
0F!
11
00
1A
1B
1W!
0m
1g
10
1/
0A
1X!
0h
1k
0/
1Y!
0l
1Z!
1p
0E!
0/!
1r
1s
0K
0)
1J
1(
#340000
0!
0;
0M
0N
#350000
1!
1;
1M
1N
06!
0X
1>!
0?!
1T!
0S!
1C!
1a!
0Q
0Y
0o
0s
1t
0+!
1~
1/!
0r
1H!
1F!
1s
0t
0,!
1!!
0u
1v
1n
0Z
0p
0U!
1G!
1[
0`
1w
0&!
1"!
1u
0v
1E!
1K
0J
0B
1-!
1L!
0V!
0/!
0w
0%!
1#!
1a
0f
0D!
1)
0(
00
0I
1J
0W!
1K!
1m
0g
0$!
1)!
1(
0'
1I
1H
1J!
0X!
0*!
1h
0k
1'
1&
0H
0K
0Y!
1I!
1l
0)
0&
1.!
0Z!
#360000
0!
0;
0M
0N
#370000
1!
1;
1M
1N
17!
0>!
0=!
1R!
1S!
0b!
0q
1P
0s
0-!
0u
0~
1D!
1,!
0!!
1Q
0.!
0G!
1&!
0"!
0I
0J
0C
0L!
1%!
0#!
0(
0'
01
1B
0K!
1$!
0)!
10
0J!
1*!
0I!
#380000
0!
0;
0M
0N
#390000
1!
1;
1M
1N
16!
1X
07!
1b!
0C!
0a!
0Q
1R
1Y
1q
0P
1Q
0R
0n
1Z
1S
1U!
0[
1`
0S
1C
0B
1o
1V!
0a
1f
0F!
11
00
1A
1B
1W!
0m
1g
10
1/
0A
1X!
0h
1k
0/
1Y!
0l
1Z!
1p
0E!
1/!
1K
1)
#400000
0!
0;
0M
0N
#410000
1!
1;
1M
1N
06!
0X
1?!
0T!
1C!
1a!
0Q
0Y
0o
0/!
1r
1F!
1s
1n
0Z
0p
0U!
1[
0`
1E!
0K
0B
0V!
1/!
0r
1a
0f
0)
00
1J
0W!
1m
0g
0s
1(
0X!
1h
0k
1K
0Y!
1l
1)
0J
0Z!
0(
#420000
0!
0;
0M
0N
#430000
1!
1;
1M
1N
17!
0b!
0q
1P
1Q
0C
01
1B
10
#440000
0!
0;
0M
0N
#450000
1!
1;
1M
1N
16!
1X
07!
1b!
0C!
0a!
0Q
1R
1Y
1q
0P
1Q
0R
0n
1Z
1S
1U!
0[
1`
0S
1C
0B
1o
1V!
0a
1f
0F!
11
00
1A
1B
1W!
0m
1g
10
1/
0A
1X!
0h
1k
0/
1Y!
0l
1Z!
1p
0E!
0/!
1r
1s
0K
0)
1J
1(
#460000
0!
0;
0M
0N
#470000
1!
1;
1M
1N
06!
0X
1>!
0?!
1T!
0S!
1C!
1a!
0Q
0Y
0o
0s
1t
1+!
1/!
0r
0H!
1F!
1s
0t
1u
1n
0Z
0p
0U!
1[
0`
0u
1E!
1K
0J
0B
0V!
0/!
1a
0f
1)
0(
00
1I
1J
0W!
1m
0g
1(
1'
0I
0X!
1h
0k
0'
0K
0Y!
1l
0)
0Z!
#480000
0!
0;
0M
0N
#490000
1!
1;
1M
1N
17!
0b!
0q
1P
1Q
0C
01
1B
10
#500000
0!
0;
0M
0N
#510000
1!
1;
1M
1N
16!
1X
07!
1b!
0C!
0a!
0Q
1R
1Y
1q
0P
1Q
0R
0n
1Z
1S
1U!
0[
1`
0S
1C
0B
1o
1V!
0a
1f
0F!
11
00
1A
1B
1W!
0m
1g
10
1/
0A
1X!
0h
1k
0/
1Y!
0l
1Z!
1p
0E!
1/!
1K
1)
#520000
0!
0;
0M
0N
#530000
1!
1;
1M
1N
06!
0X
1?!
0T!
1C!
1a!
0Q
0Y
0o
0/!
1r
1F!
0s
1t
1n
0Z
0p
0U!
1[
0`
1u
1E!
0K
0B
0V!
1/!
0r
1a
0f
0)
00
0J
0W!
1m
0g
1s
0t
0(
1I
0X!
0u
1h
0k
1'
1K
0Y!
1l
1)
1J
0Z!
1(
0I
0'
#540000
0!
0;
0M
0N
#550000
1!
1;
1M
1N
17!
0b!
0q
1P
1Q
0C
01
1B
10
#560000
0!
0;
0M
0N
#570000
1!
1;
1M
1N
16!
1X
07!
1b!
0C!
0a!
0Q
1R
1Y
1q
0P
1Q
0R
0n
1Z
1S
1U!
0[
1`
0S
1C
0B
1o
1V!
0a
1f
0F!
11
00
1A
1B
1W!
0m
1g
10
1/
0A
1X!
0h
1k
0/
1Y!
0l
1Z!
1p
0E!
0/!
1r
0s
1t
1u
0K
0)
0J
0(
1I
1'
#580000
0!
0;
0M
0N
#590000
1!
1;
1M
1N
06!
0X
0>!
1=!
0?!
1T!
0R!
1S!
1C!
1a!
0Q
0Y
0o
1s
0t
0u
1v
1/!
0r
1F!
0s
1w
1u
0v
1n
0Z
0p
0U!
1[
0`
0w
1E!
1K
0I
1J
0B
0V!
0/!
1a
0f
1)
1(
0'
00
1I
1H
0J
0W!
1m
0g
0(
1'
1&
0H
0X!
1h
0k
0&
0K
0Y!
1l
0)
0Z!
#600000
0!
0;
0M
0N
#610000
1!
1;
1M
1N
17!
0b!
0q
1P
1Q
0C
01
1B
10
#620000
0!
0;
0M
0N
#630000
1!
1;
1M
1N
16!
1X
07!
1b!
0C!
0a!
0Q
1R
1Y
1q
0P
1Q
0R
0n
1Z
1S
1U!
0[
1`
0S
1C
0B
1o
1V!
0a
1f
0F!
11
00
1A
1B
1W!
0m
1g
10
1/
0A
1X!
0h
1k
0/
1Y!
0l
1Z!
1p
0E!
1/!
1K
1)
#640000
0!
0;
0M
0N
#650000
1!
1;
1M
1N
06!
0X
1?!
0T!
1C!
1a!
0Q
0Y
0o
0/!
1r
1F!
1s
1n
0Z
0p
0U!
1[
0`
1E!
0K
0B
0V!
1/!
0r
1a
0f
0)
00
1J
0W!
1m
0g
0s
1(
0X!
1h
0k
1K
0Y!
1l
1)
0J
0Z!
0(
#660000
0!
0;
0M
0N
#670000
1!
1;
1M
1N
17!
0b!
0q
1P
1Q
0C
01
1B
10
#680000
0!
0;
0M
0N
#690000
1!
1;
1M
1N
16!
1X
07!
1b!
0C!
0a!
0Q
1R
1Y
1q
0P
1Q
0R
0n
1Z
1S
1U!
0[
1`
0S
1C
0B
1o
1V!
0a
1f
0F!
11
00
1A
1B
1W!
0m
1g
10
1/
0A
1X!
0h
1k
0/
1Y!
0l
1Z!
1p
0E!
0/!
1r
1s
0K
0)
1J
1(
#700000
0!
0;
0M
0N
#710000
1!
1;
1M
1N
06!
0X
1>!
0?!
1T!
0S!
1C!
1a!
0Q
0Y
0o
0s
1t
0+!
1~
1/!
0r
1H!
1F!
1s
0t
0,!
1!!
0u
1v
1n
0Z
0p
0U!
1G!
1[
0`
1w
0&!
1"!
1u
0v
1E!
1K
0J
0B
1-!
1L!
0V!
0/!
0w
0%!
1#!
1a
0f
0D!
1)
0(
00
0I
1J
0W!
1K!
1m
0g
0$!
1)!
1(
0'
1I
1H
1J!
0X!
0*!
1h
0k
1'
1&
0H
0K
0Y!
1I!
1l
0)
0&
1.!
0Z!
#720000
0!
0;
0M
0N
#730000
1!
1;
1M
1N
17!
0>!
0=!
1R!
1S!
0b!
0q
1P
0s
0-!
0u
0~
1D!
1,!
0!!
1Q
0.!
0G!
1&!
0"!
0I
0J
0C
0L!
1%!
0#!
0(
0'
01
1B
0K!
1$!
0)!
10
0J!
1*!
0I!
#740000
0!
0;
0M
0N
#750000
1!
1;
1M
1N
16!
1X
07!
1b!
0C!
0a!
0Q
1R
1Y
1q
0P
1Q
0R
0n
1Z
1S
1U!
0[
1`
0S
1C
0B
1o
1V!
0a
1f
0F!
11
00
1A
1B
1W!
0m
1g
10
1/
0A
1X!
0h
1k
0/
1Y!
0l
1Z!
1p
0E!
1/!
1K
1)
#760000
0!
0;
0M
0N
#770000
1!
1;
1M
1N
06!
0X
1?!
0T!
1C!
1a!
0Q
0Y
0o
0/!
1r
1F!
1s
1n
0Z
0p
0U!
1[
0`
1E!
0K
0B
0V!
1/!
0r
1a
0f
0)
00
1J
0W!
1m
0g
0s
1(
0X!
1h
0k
1K
0Y!
1l
1)
0J
0Z!
0(
#780000
0!
0;
0M
0N
#790000
1!
1;
1M
1N
17!
0b!
0q
1P
1Q
0C
01
1B
10
#800000
0!
0;
0M
0N
#810000
1!
1;
1M
1N
16!
1X
07!
1b!
0C!
0a!
0Q
1R
1Y
1q
0P
1Q
0R
0n
1Z
1S
1U!
0[
1`
0S
1C
0B
1o
1V!
0a
1f
0F!
11
00
1A
1B
1W!
0m
1g
10
1/
0A
1X!
0h
1k
0/
1Y!
0l
1Z!
1p
0E!
0/!
1r
1s
0K
0)
1J
1(
#820000
0!
0;
0M
0N
#830000
1!
1;
1M
1N
06!
0X
1>!
0?!
1T!
0S!
1C!
1a!
0Q
0Y
0o
0s
1t
1+!
1/!
0r
0H!
1F!
1s
0t
1u
1n
0Z
0p
0U!
1[
0`
0u
1E!
1K
0J
0B
0V!
0/!
1a
0f
1)
0(
00
1I
1J
0W!
1m
0g
1(
1'
0I
0X!
1h
0k
0'
0K
0Y!
1l
0)
0Z!
#840000
0!
0;
0M
0N
#850000
1!
1;
1M
1N
17!
0b!
0q
1P
1Q
0C
01
1B
10
#860000
0!
0;
0M
0N
#870000
1!
1;
1M
1N
16!
1X
07!
1b!
0C!
0a!
0Q
1R
1Y
1q
0P
1Q
0R
0n
1Z
1S
1U!
0[
1`
0S
1C
0B
1o
1V!
0a
1f
0F!
11
00
1A
1B
1W!
0m
1g
10
1/
0A
1X!
0h
1k
0/
1Y!
0l
1Z!
1p
0E!
1/!
1K
1)
#880000
0!
0;
0M
0N
#890000
1!
1;
1M
1N
06!
0X
1?!
0T!
1C!
1a!
0Q
0Y
0o
0/!
1r
1F!
0s
1t
1n
0Z
0p
0U!
1[
0`
1u
1E!
0K
0B
0V!
1/!
0r
1a
0f
0)
00
0J
0W!
1m
0g
1s
0t
0(
1I
0X!
0u
1h
0k
1'
1K
0Y!
1l
1)
1J
0Z!
1(
0I
0'
#900000
0!
0;
0M
0N
#910000
1!
1;
1M
1N
17!
0b!
0q
1P
1Q
0C
01
1B
10
#920000
0!
0;
0M
0N
#930000
1!
1;
1M
1N
16!
1X
07!
1b!
0C!
0a!
0Q
1R
1Y
1q
0P
1Q
0R
0n
1Z
1S
1U!
0[
1`
0S
1C
0B
1o
1V!
0a
1f
0F!
11
00
1A
1B
1W!
0m
1g
10
1/
0A
1X!
0h
1k
0/
1Y!
0l
1Z!
1p
0E!
0/!
1r
0s
1t
1u
0K
0)
0J
0(
1I
1'
#940000
0!
0;
0M
0N
#950000
1!
1;
1M
1N
06!
0X
0>!
1=!
0?!
1T!
0R!
1S!
1C!
1a!
0Q
0Y
0o
1s
0t
0u
1v
1/!
0r
1F!
0s
1w
1u
0v
1n
0Z
0p
0U!
1[
0`
0w
1E!
1K
0I
1J
0B
0V!
0/!
1a
0f
1)
1(
0'
00
1I
1H
0J
0W!
1m
0g
0(
1'
1&
0H
0X!
1h
0k
0&
0K
0Y!
1l
0)
0Z!
#960000
0!
0;
0M
0N
#970000
1!
1;
1M
1N
17!
0b!
0q
1P
1Q
0C
01
1B
10
#980000
0!
0;
0M
0N
#990000
1!
1;
1M
1N
16!
1X
07!
1b!
0C!
0a!
0Q
1R
1Y
1q
0P
1Q
0R
0n
1Z
1S
1U!
0[
1`
0S
1C
0B
1o
1V!
0a
1f
0F!
11
00
1A
1B
1W!
0m
1g
10
1/
0A
1X!
0h
1k
0/
1Y!
0l
1Z!
1p
0E!
1/!
1K
1)
