Relogio/simulation/qsim/Relogio.msim.vcd
$comment
	File created using the following command:
		vcd file Relogio.msim.vcd -direction
$end
$date
	Sat Sep 23 19:11:06 2017
$end
$version
	ModelSim Version 10.5b
$end
$timescale
	1ps
$end

$scope module relogio_vhd_vec_tst $end
$var wire 1 ! clk $end
$var wire 1 " saida [7] $end
$var wire 1 # saida [6] $end
$var wire 1 $ saida [5] $end
$var wire 1 % saida [4] $end
$var wire 1 & saida [3] $end
$var wire 1 ' saida [2] $end
$var wire 1 ( saida [1] $end
$var wire 1 ) saida [0] $end

$scope module i1 $end
$var wire 1 * gnd $end
$var wire 1 + vcc $end
$var wire 1 , unknown $end
$var wire 1 - devoe $end
$var wire 1 . devclrn $end
$var wire 1 / devpor $end
$var wire 1 0 ww_devoe $end
$var wire 1 1 ww_devclrn $end
$var wire 1 2 ww_devpor $end
$var wire 1 3 ww_clk $end
$var wire 1 4 ww_saida [7] $end
$var wire 1 5 ww_saida [6] $end
$var wire 1 6 ww_saida [5] $end
$var wire 1 7 ww_saida [4] $end
$var wire 1 8 ww_saida [3] $end
$var wire 1 9 ww_saida [2] $end
$var wire 1 : ww_saida [1] $end
$var wire 1 ; ww_saida [0] $end
$var wire 1 < \~QUARTUS_CREATED_GND~I_combout\ $end
$var wire 1 = \clk~input_o\ $end
$var wire 1 > \clk~inputCLKENA0_outclk\ $end
$var wire 1 ? \regValue|DOUT[3]~DUPLICATE_q\ $end
$var wire 1 @ \ULA|Add0~2\ $end
$var wire 1 A \ULA|Add0~5_sumout\ $end
$var wire 1 B \ULA|Add0~6\ $end
$var wire 1 C \ULA|Add0~9_sumout\ $end
$var wire 1 D \regValue|DOUT[2]~DUPLICATE_q\ $end
$var wire 1 E \ULA|Add0~10\ $end
$var wire 1 F \ULA|Add0~13_sumout\ $end
$var wire 1 G \COMP|Add1~26_cout\ $end
$var wire 1 H \COMP|Add1~22\ $end
$var wire 1 I \COMP|Add1~1_sumout\ $end
$var wire 1 J \ULA|Add0~14\ $end
$var wire 1 K \ULA|Add0~17_sumout\ $end
$var wire 1 L \ULA|Add0~18\ $end
$var wire 1 M \ULA|Add0~21_sumout\ $end
$var wire 1 N \COMP|Add1~2\ $end
$var wire 1 O \COMP|Add1~6\ $end
$var wire 1 P \COMP|Add1~9_sumout\ $end
$var wire 1 Q \ULA|Add0~22\ $end
$var wire 1 R \ULA|Add0~25_sumout\ $end
$var wire 1 S \ULA|Add0~26\ $end
$var wire 1 T \ULA|Add0~29_sumout\ $end
$var wire 1 U \COMP|Add1~10\ $end
$var wire 1 V \COMP|Add1~14\ $end
$var wire 1 W \COMP|Add1~17_sumout\ $end
$var wire 1 X \COMP|Add1~5_sumout\ $end
$var wire 1 Y \COMP|Add1~13_sumout\ $end
$var wire 1 Z \COMP|Add1~21_sumout\ $end
$var wire 1 [ \MUX|Equal0~0_combout\ $end
$var wire 1 \ \MUX|Equal0~1_combout\ $end
$var wire 1 ] \ULA|Add0~1_sumout\ $end
$var wire 1 ^ \regValue|DOUT\ [7] $end
$var wire 1 _ \regValue|DOUT\ [6] $end
$var wire 1 ` \regValue|DOUT\ [5] $end
$var wire 1 a \regValue|DOUT\ [4] $end
$var wire 1 b \regValue|DOUT\ [3] $end
$var wire 1 c \regValue|DOUT\ [2] $end
$var wire 1 d \regValue|DOUT\ [1] $end
$var wire 1 e \regValue|DOUT\ [0] $end
$var wire 1 f \regValue|ALT_INV_DOUT\ [7] $end
$var wire 1 g \regValue|ALT_INV_DOUT\ [6] $end
$var wire 1 h \regValue|ALT_INV_DOUT\ [5] $end
$var wire 1 i \regValue|ALT_INV_DOUT\ [4] $end
$var wire 1 j \regValue|ALT_INV_DOUT\ [3] $end
$var wire 1 k \regValue|ALT_INV_DOUT\ [2] $end
$var wire 1 l \regValue|ALT_INV_DOUT\ [1] $end
$var wire 1 m \regValue|ALT_INV_DOUT\ [0] $end
$var wire 1 n \COMP|ALT_INV_Add1~1_sumout\ $end
$var wire 1 o \COMP|ALT_INV_Add1~5_sumout\ $end
$var wire 1 p \COMP|ALT_INV_Add1~9_sumout\ $end
$var wire 1 q \COMP|ALT_INV_Add1~13_sumout\ $end
$var wire 1 r \COMP|ALT_INV_Add1~17_sumout\ $end
$var wire 1 s \COMP|ALT_INV_Add1~21_sumout\ $end
$var wire 1 t \MUX|ALT_INV_Equal0~0_combout\ $end
$var wire 1 u \regValue|ALT_INV_DOUT[2]~DUPLICATE_q\ $end
$var wire 1 v \regValue|ALT_INV_DOUT[3]~DUPLICATE_q\ $end
$upscope $end
$upscope $end
$enddefinitions $end
#0
$dumpvars
0!
0*
1+
x,
1-
1.
1/
10
11
12
03
x<
0=
0>
0?
0@
0A
0B
0C
0D
0E
0F
0G
0H
0I
0J
0K
0L
0M
0N
0O
1P
0Q
0R
0S
0T
0U
0V
1W
1X
1Y
1Z
0[
0\
1]
1n
0o
0p
0q
0r
0s
1t
1u
1v
04
05
06
07
08
09
0:
1;
0^
0_
0`
0a
0b
0c
0d
0e
1f
1g
1h
1i
1j
1k
1l
1m
0"
0#
0$
0%
0&
0'
0(
1)
$end
#10000
1!
13
1=
1>
1e
0m
0]
1@
1A
0;
0)
1:
1(
#20000
0!
03
0=
0>
#30000
1!
13
1=
1>
1d
0e
1m
0l
0A
1B
1G
1]
0@
1A
0B
0Z
1H
1C
1s
1I
0C
1;
0:
1[
0n
0t
1)
0(
19
1:
1(
1'
09
0'
#40000
0!
03
0=
0>
#50000
1!
13
1=
1>
1e
0m
0]
1@
0[
1t
0A
1B
1C
0;
0)
0:
0(
19
1'
#60000
0!
03
0=
0>
#70000
1!
13
1=
1>
0d
1D
1c
0e
1m
0k
0u
1l
1A
0B
0G
0C
1E
1Z
1]
0@
0s
0A
1F
0Z
1C
0E
1s
0F
1;
09
1:
1)
1(
0'
19
18
0:
0(
1'
1&
08
0&
#80000
0!
03
0=
0>
#90000
1!
13
1=
1>
1e
0m
0]
1@
1A
0;
0)
1:
1(
#100000
0!
03
0=
0>
#110000
1!
13
1=
1>
1d
0e
1m
0l
0A
1B
1G
1]
0@
1[
0t
1A
0B
1Z
0C
1E
0s
1F
1C
0E
1;
0:
0[
0F
1t
1)
0(
09
1:
1(
0'
19
18
1'
1&
08
0&
#120000
0!
03
0=
0>
#130000
1!
13
1=
1>
1e
0m
0]
1@
0A
1B
0C
1E
0;
1F
0)
0:
0(
09
0'
18
1&
#140000
0!
03
0=
0>
#150000
1!
13
1=
1>
1?
0d
0D
1b
0c
0e
1m
1k
0j
1u
1l
0v
0F
1J
1A
0B
0G
1C
0E
0I
1N
0Z
1]
0@
1s
1n
0A
0X
1O
1F
0J
1Z
0H
0C
1K
0s
1o
1I
0N
0K
0P
1U
1;
19
1:
08
1p
0n
0Y
1V
1X
0O
1)
1(
1'
0&
17
09
18
0:
0o
1q
1P
0U
0W
0(
0'
1&
1%
07
1r
0p
1Y
0V
0%
0q
1W
0r
#160000
0!
03
0=
0>
#170000
1!
13
1=
1>
1e
0m
0]
1@
1A
0;
0)
1:
1(
#180000
0!
03
0=
0>
#190000
1!
13
1=
1>
1d
0e
1m
0l
0A
1B
1G
1]
0@
1A
0B
0Z
1H
1C
1s
0I
1N
0C
1;
0:
1[
1n
0X
1O
0t
1)
0(
19
1:
1o
0P
1U
1(
1'
09
1p
0Y
1V
0'
1q
0W
1r
1\
#200000
0!
03
0=
0>
#210000
1!
13
1=
1>
0?
0d
0b
1j
1l
1v
0F
0A
0G
0[
1I
0N
0n
1t
1X
0O
1Z
0H
0\
0s
0o
0I
1P
0U
0:
08
0p
1n
1Y
0V
0(
0&
0q
1W
0r
#220000
0!
03
0=
0>
#230000
1!
13
1=
1>
1e
0m
0]
1@
1A
0;
0)
1:
1(
#240000
0!
03
0=
0>
#250000
1!
13
1=
1>
1d
0e
1m
0l
0A
1B
1G
1]
0@
1A
0B
0Z
1H
1C
1s
1I
0C
1;
0:
1[
0n
0t
1)
0(
19
1:
1(
1'
09
0'
#260000
0!
03
0=
0>
#270000
1!
13
1=
1>
1e
0m
0]
1@
0[
1t
0A
1B
1C
0;
0)
0:
0(
19
1'
#280000
0!
03
0=
0>
#290000
1!
13
1=
1>
0d
1D
1c
0e
1m
0k
0u
1l
1A
0B
0G
0C
1E
1Z
1]
0@
0s
0A
1F
0Z
1C
0E
1s
0F
1;
09
1:
1)
1(
0'
19
18
0:
0(
1'
1&
08
0&
#300000
0!
03
0=
0>
#310000
1!
13
1=
1>
1e
0m
0]
1@
1A
0;
0)
1:
1(
#320000
0!
03
0=
0>
#330000
1!
13
1=
1>
1d
0e
1m
0l
0A
1B
1G
1]
0@
1[
0t
1A
0B
1Z
0C
1E
0s
1F
1C
0E
1;
0:
0[
0F
1t
1)
0(
09
1:
1(
0'
19
18
1'
1&
08
0&
#340000
0!
03
0=
0>
#350000
1!
13
1=
1>
1e
0m
0]
1@
0A
1B
0C
1E
0;
1F
0)
0:
0(
09
0'
18
1&
#360000
0!
03
0=
0>
#370000
1!
13
1=
1>
1?
0d
0D
1b
0c
0e
1m
1k
0j
1u
1l
0v
0F
1J
1A
0B
0G
1C
0E
0I
1N
0Z
1]
0@
1s
1n
0A
0X
1O
1F
0J
1Z
0H
0C
1K
0s
1o
1I
0N
0K
0P
1U
1;
19
1:
08
1p
0n
0Y
1V
1X
0O
1)
1(
1'
0&
17
09
18
0:
0o
1q
1P
0U
0W
0(
0'
1&
1%
07
1r
0p
1Y
0V
0%
0q
1W
0r
#380000
0!
03
0=
0>
#390000
1!
13
1=
1>
1e
0m
0]
1@
1A
0;
0)
1:
1(
#400000
0!
03
0=
0>
#410000
1!
13
1=
1>
1d
0e
1m
0l
0A
1B
1G
1]
0@
1A
0B
0Z
1H
1C
1s
0I
1N
0C
1;
0:
1[
1n
0X
1O
0t
1)
0(
19
1:
1o
0P
1U
1(
1'
09
1p
0Y
1V
0'
1q
0W
1r
1\
#420000
0!
03
0=
0>
#430000
1!
13
1=
1>
0?
0d
0b
1j
1l
1v
0F
0A
0G
0[
1I
0N
0n
1t
1X
0O
1Z
0H
0\
0s
0o
0I
1P
0U
0:
08
0p
1n
1Y
0V
0(
0&
0q
1W
0r
#440000
0!
03
0=
0>
#450000
1!
13
1=
1>
1e
0m
0]
1@
1A
0;
0)
1:
1(
#460000
0!
03
0=
0>
#470000
1!
13
1=
1>
1d
0e
1m
0l
0A
1B
1G
1]
0@
1A
0B
0Z
1H
1C
1s
1I
0C
1;
0:
1[
0n
0t
1)
0(
19
1:
1(
1'
09
0'
#480000
0!
03
0=
0>
#490000
1!
13
1=
1>
1e
0m
0]
1@
0[
1t
0A
1B
1C
0;
0)
0:
0(
19
1'
#500000
0!
03
0=
0>
#510000
1!
13
1=
1>
0d
1D
1c
0e
1m
0k
0u
1l
1A
0B
0G
0C
1E
1Z
1]
0@
0s
0A
1F
0Z
1C
0E
1s
0F
1;
09
1:
1)
1(
0'
19
18
0:
0(
1'
1&
08
0&
#520000
0!
03
0=
0>
#530000
1!
13
1=
1>
1e
0m
0]
1@
1A
0;
0)
1:
1(
#540000
0!
03
0=
0>
#550000
1!
13
1=
1>
1d
0e
1m
0l
0A
1B
1G
1]
0@
1[
0t
1A
0B
1Z
0C
1E
0s
1F
1C
0E
1;
0:
0[
0F
1t
1)
0(
09
1:
1(
0'
19
18
1'
1&
08
0&
#560000
0!
03
0=
0>
#570000
1!
13
1=
1>
1e
0m
0]
1@
0A
1B
0C
1E
0;
1F
0)
0:
0(
09
0'
18
1&
#580000
0!
03
0=
0>
#590000
1!
13
1=
1>
1?
0d
0D
1b
0c
0e
1m
1k
0j
1u
1l
0v
0F
1J
1A
0B
0G
1C
0E
0I
1N
0Z
1]
0@
1s
1n
0A
0X
1O
1F
0J
1Z
0H
0C
1K
0s
1o
1I
0N
0K
0P
1U
1;
19
1:
08
1p
0n
0Y
1V
1X
0O
1)
1(
1'
0&
17
09
18
0:
0o
1q
1P
0U
0W
0(
0'
1&
1%
07
1r
0p
1Y
0V
0%
0q
1W
0r
#600000
0!
03
0=
0>
#610000
1!
13
1=
1>
1e
0m
0]
1@
1A
0;
0)
1:
1(
#620000
0!
03
0=
0>
#630000
1!
13
1=
1>
1d
0e
1m
0l
0A
1B
1G
1]
0@
1A
0B
0Z
1H
1C
1s
0I
1N
0C
1;
0:
1[
1n
0X
1O
0t
1)
0(
19
1:
1o
0P
1U
1(
1'
09
1p
0Y
1V
0'
1q
0W
1r
1\
#640000
0!
03
0=
0>
#650000
1!
13
1=
1>
0?
0d
0b
1j
1l
1v
0F
0A
0G
0[
1I
0N
0n
1t
1X
0O
1Z
0H
0\
0s
0o
0I
1P
0U
0:
08
0p
1n
1Y
0V
0(
0&
0q
1W
0r
#660000
0!
03
0=
0>
#670000
1!
13
1=
1>
1e
0m
0]
1@
1A
0;
0)
1:
1(
#680000
0!
03
0=
0>
#690000
1!
13
1=
1>
1d
0e
1m
0l
0A
1B
1G
1]
0@
1A
0B
0Z
1H
1C
1s
1I
0C
1;
0:
1[
0n
0t
1)
0(
19
1:
1(
1'
09
0'
#700000
0!
03
0=
0>
#710000
1!
13
1=
1>
1e
0m
0]
1@
0[
1t
0A
1B
1C
0;
0)
0:
0(
19
1'
#720000
0!
03
0=
0>
#730000
1!
13
1=
1>
0d
1D
1c
0e
1m
0k
0u
1l
1A
0B
0G
0C
1E
1Z
1]
0@
0s
0A
1F
0Z
1C
0E
1s
0F
1;
09
1:
1)
1(
0'
19
18
0:
0(
1'
1&
08
0&
#740000
0!
03
0=
0>
#750000
1!
13
1=
1>
1e
0m
0]
1@
1A
0;
0)
1:
1(
#760000
0!
03
0=
0>
#770000
1!
13
1=
1>
1d
0e
1m
0l
0A
1B
1G
1]
0@
1[
0t
1A
0B
1Z
0C
1E
0s
1F
1C
0E
1;
0:
0[
0F
1t
1)
0(
09
1:
1(
0'
19
18
1'
1&
08
0&
#780000
0!
03
0=
0>
#790000
1!
13
1=
1>
1e
0m
0]
1@
0A
1B
0C
1E
0;
1F
0)
0:
0(
09
0'
18
1&
#800000
0!
03
0=
0>
#810000
1!
13
1=
1>
1?
0d
0D
1b
0c
0e
1m
1k
0j
1u
1l
0v
0F
1J
1A
0B
0G
1C
0E
0I
1N
0Z
1]
0@
1s
1n
0A
0X
1O
1F
0J
1Z
0H
0C
1K
0s
1o
1I
0N
0K
0P
1U
1;
19
1:
08
1p
0n
0Y
1V
1X
0O
1)
1(
1'
0&
17
09
18
0:
0o
1q
1P
0U
0W
0(
0'
1&
1%
07
1r
0p
1Y
0V
0%
0q
1W
0r
#820000
0!
03
0=
0>
#830000
1!
13
1=
1>
1e
0m
0]
1@
1A
0;
0)
1:
1(
#840000
0!
03
0=
0>
#850000
1!
13
1=
1>
1d
0e
1m
0l
0A
1B
1G
1]
0@
1A
0B
0Z
1H
1C
1s
0I
1N
0C
1;
0:
1[
1n
0X
1O
0t
1)
0(
19
1:
1o
0P
1U
1(
1'
09
1p
0Y
1V
0'
1q
0W
1r
1\
#860000
0!
03
0=
0>
#870000
1!
13
1=
1>
0?
0d
0b
1j
1l
1v
0F
0A
0G
0[
1I
0N
0n
1t
1X
0O
1Z
0H
0\
0s
0o
0I
1P
0U
0:
08
0p
1n
1Y
0V
0(
0&
0q
1W
0r
#880000
0!
03
0=
0>
#890000
1!
13
1=
1>
1e
0m
0]
1@
1A
0;
0)
1:
1(
#900000
0!
03
0=
0>
#910000
1!
13
1=
1>
1d
0e
1m
0l
0A
1B
1G
1]
0@
1A
0B
0Z
1H
1C
1s
1I
0C
1;
0:
1[
0n
0t
1)
0(
19
1:
1(
1'
09
0'
#920000
0!
03
0=
0>
#930000
1!
13
1=
1>
1e
0m
0]
1@
0[
1t
0A
1B
1C
0;
0)
0:
0(
19
1'
#940000
0!
03
0=
0>
#950000
1!
13
1=
1>
0d
1D
1c
0e
1m
0k
0u
1l
1A
0B
0G
0C
1E
1Z
1]
0@
0s
0A
1F
0Z
1C
0E
1s
0F
1;
09
1:
1)
1(
0'
19
18
0:
0(
1'
1&
08
0&
#960000
0!
03
0=
0>
#970000
1!
13
1=
1>
1e
0m
0]
1@
1A
0;
0)
1:
1(
#980000
0!
03
0=
0>
#990000
1!
13
1=
1>
1d
0e
1m
0l
0A
1B
1G
1]
0@
1[
0t
1A
0B
1Z
0C
1E
0s
1F
1C
0E
1;
0:
0[
0F
1t
1)
0(
09
1:
1(
0'
19
18
1'
1&
08
0&
